Chapter 5 Tasmania Tutorial | 2021 UQ Spatial Planning Workshop using Prioritizr
…
# count number of planning units in solution
sum(s1$solution_1)

## [1] 326

# proportion of planning units in solution
mean(s1$solution_1)

## [1] 0.2884956

# calculate feature representation
r1 <- eval_feature_representation_summary(p1, s1[, "solution_1", drop = FALSE])
print(r1)

## # A tibble: 62 x 5
##    summary feature total_amount absolute_held relative_held
##    <chr>   <chr>          <dbl>         <dbl>         <dbl>
##  1 overall veg1            33.9          5.97         0.176
##  2 overall veg2           170.          40.7          0.239
##  3 overall veg3            24.0          6.00         0.250
##  4 overall veg4            32.8         10.4          0.317
##  5 overall veg5            24.8          4.51         0.182
##  6 overall veg6            22.0          4.00         0.182
##  7 overall veg7            16.4          3.06         0.187
##  8 overall veg8            43.0          9.12         0.212
##  9 overall veg9           388.          95.3          0.245
## 10 overall veg10           14.5          5.91         0.407
## # … with 52 more rows
…
# calculate feature representation
r2 <- eval_feature_representation_summary(p2, s2[, "solution_1"])
print(r2)

## # A tibble: 62 x 5
##    summary feature         total_amount absolute_held relative_held
##    <chr>   <chr>                  <dbl>         <dbl>         <dbl>
##  1 overall tas_features.1          33.9          5.97         0.176
##  2 overall tas_features.2         170.          40.7          0.239
##  3 overall tas_features.3          24.0          6.00         0.250
##  4 overall tas_features.4          32.8         10.4          0.317
##  5 overall tas_features.5          24.8          4.51         0.182
##  6 overall tas_features.6          22.0          4.00         0.182
##  7 overall tas_features.7          16.4          3.06         0.187
##  8 overall tas_features.8          43.0          9.12         0.212
##  9 overall tas_features.9         388.          95.3          0.245
## 10 overall tas_features.10         14.5          5.91         0.407
## # … with 52 more rows
…
