Chapter 5 Data | 2021 UQ Spatial Planning Workshop using Prioritizr
…
# calculate the minimum value of all the cell values in the first layer
cellStats(tas_features[[1]], "min")

## [1] 0

# calculate the mean value of all the cell values in the first layer
cellStats(tas_features[[1]], "mean")

## [1] 0.0003279883

# calculate the maximum value in each layer
as_tibble(data.frame(max = cellStats(tas_features, "max")))

## # A tibble: 62 x 1
##      max
##    <dbl>
##  1     1
##  2     1
##  3     1
##  4     1
##  5     1
##  6     1
##  7     1
##  8     1
##  9     1
## 10     1
## # … with 52 more rows
…
